<?xml version="1.0" encoding="UTF-8" standalone="no"?>
<svg xmlns="http://www.w3.org/2000/svg" height="300" width="300" version="1.1" viewBox="0 0 300 300">
 <circle stroke-width="1.987" stroke="#19b6ee" cy="150" cx="150" r="149" fill="none"/>
</svg>
